%YAML 1.1
%TAG !u! tag:unity3d.com,2011:
--- !u!114 &11400000
MonoBehaviour:
  m_ObjectHideFlags: 0
  m_CorrespondingSourceObject: {fileID: 0}
  m_PrefabInstance: {fileID: 0}
  m_PrefabAsset: {fileID: 0}
  m_GameObject: {fileID: 0}
  m_Enabled: 1
  m_EditorHideFlags: 0
  m_Script: {fileID: 11500000, guid: d7fd9488000d3734a9e00ee676215985, type: 3}
  m_Name: NoiteVolumeSettings
  m_EditorClassIdentifier: 
  components:
  - {fileID: 114538237457935414}
  - {fileID: 114526181457388624}
  - {fileID: 114533514063297886}
  - {fileID: 114836563956304504}
  - {fileID: 114957318768127008}
  - {fileID: 114395448572297836}
  - {fileID: 114887199133453034}
  - {fileID: 114500080914784318}
  - {fileID: 114893122889947544}
--- !u!114 &114395448572297836
MonoBehaviour:
  m_ObjectHideFlags: 3
  m_CorrespondingSourceObject: {fileID: 0}
  m_PrefabInstance: {fileID: 0}
  m_PrefabAsset: {fileID: 0}
  m_GameObject: {fileID: 0}
  m_Enabled: 1
  m_EditorHideFlags: 0
  m_Script: {fileID: 11500000, guid: 56b145d2b9ee1ac4f846968484e7485a, type: 3}
  m_Name: ContactShadows
  m_EditorClassIdentifier: 
  active: 0
  enable:
    m_OverrideState: 1
    m_Value: 1
  length:
    m_OverrideState: 1
    m_Value: 0.187
    min: 0
    max: 1
  opacity:
    m_OverrideState: 1
    m_Value: 1
    min: 0
    max: 1
  distanceScaleFactor:
    m_OverrideState: 1
    m_Value: 0
    min: 0
    max: 1
  maxDistance:
    m_OverrideState: 1
    m_Value: 50
    min: 0
  fadeDistance:
    m_OverrideState: 1
    m_Value: 5
    min: 0
  sampleCount:
    m_OverrideState: 1
    m_Value: 25
    min: 4
    max: 64
--- !u!114 &114500080914784318
MonoBehaviour:
  m_ObjectHideFlags: 3
  m_CorrespondingSourceObject: {fileID: 0}
  m_PrefabInstance: {fileID: 0}
  m_PrefabAsset: {fileID: 0}
  m_GameObject: {fileID: 0}
  m_Enabled: 1
  m_EditorHideFlags: 0
  m_Script: {fileID: 11500000, guid: 384c4d03a551c44448145f4093304119, type: 3}
  m_Name: ScreenSpaceReflection
  m_EditorClassIdentifier: 
  active: 0
  depthBufferThickness:
    m_OverrideState: 1
    m_Value: 0.135
    min: 0
    max: 1
  screenFadeDistance:
    m_OverrideState: 1
    m_Value: 0.664
    min: 0
    max: 1
  minSmoothness:
    m_OverrideState: 1
    m_Value: 0.837
    min: 0
    max: 1
  smoothnessFadeStart:
    m_OverrideState: 1
    m_Value: 1
    min: 0
    max: 1
  reflectSky:
    m_OverrideState: 1
    m_Value: 1
  rayMaxIterations:
    m_OverrideState: 1
    m_Value: 32
--- !u!114 &114526181457388624
MonoBehaviour:
  m_ObjectHideFlags: 3
  m_CorrespondingSourceObject: {fileID: 0}
  m_PrefabInstance: {fileID: 0}
  m_PrefabAsset: {fileID: 0}
  m_GameObject: {fileID: 0}
  m_Enabled: 1
  m_EditorHideFlags: 0
  m_Script: {fileID: 11500000, guid: 0d7593b3a9277ac4696b20006c21dde2, type: 3}
  m_Name: 
  m_EditorClassIdentifier: 
  active: 1
  skyType:
    m_OverrideState: 1
    m_Value: 2
  fogType:
    m_OverrideState: 1
    m_Value: 2
--- !u!114 &114533514063297886
MonoBehaviour:
  m_ObjectHideFlags: 3
  m_CorrespondingSourceObject: {fileID: 0}
  m_PrefabInstance: {fileID: 0}
  m_PrefabAsset: {fileID: 0}
  m_GameObject: {fileID: 0}
  m_Enabled: 1
  m_EditorHideFlags: 0
  m_Script: {fileID: 11500000, guid: 3df29e7cc05fbec4aa43e06ea875565d, type: 3}
  m_Name: 
  m_EditorClassIdentifier: 
  active: 1
  rotation:
    m_OverrideState: 1
    m_Value: 0
    min: 0
    max: 360
  skyIntensityMode:
    m_OverrideState: 0
    m_Value: 0
  exposure:
    m_OverrideState: 1
    m_Value: 0.25
  multiplier:
    m_OverrideState: 1
    m_Value: 1
    min: 0
  upperHemisphereLuxValue:
    m_OverrideState: 0
    m_Value: 1
    min: 0
  desiredLuxValue:
    m_OverrideState: 0
    m_Value: 20000
  updateMode:
    m_OverrideState: 1
    m_Value: 0
  updatePeriod:
    m_OverrideState: 1
    m_Value: 0
    min: 0
  includeSunInBaking:
    m_OverrideState: 0
    m_Value: 1
  sunSize:
    m_OverrideState: 1
    m_Value: 0.389
    min: 0
    max: 1
  sunSizeConvergence:
    m_OverrideState: 1
    m_Value: 1
    min: 1
    max: 10
  atmosphereThickness:
    m_OverrideState: 1
    m_Value: 0.53
    min: 0
    max: 5
  skyTint:
    m_OverrideState: 1
    m_Value: {r: 0.4339623, g: 0.4339623, b: 0.4339623, a: 1}
    hdr: 0
    showAlpha: 1
    showEyeDropper: 1
  groundColor:
    m_OverrideState: 1
    m_Value: {r: 0.3490566, g: 0.3490566, b: 0.3490566, a: 1}
    hdr: 0
    showAlpha: 1
    showEyeDropper: 1
  enableSunDisk:
    m_OverrideState: 1
    m_Value: 0
--- !u!114 &114538237457935414
MonoBehaviour:
  m_ObjectHideFlags: 3
  m_CorrespondingSourceObject: {fileID: 0}
  m_PrefabInstance: {fileID: 0}
  m_PrefabAsset: {fileID: 0}
  m_GameObject: {fileID: 0}
  m_Enabled: 1
  m_EditorHideFlags: 0
  m_Script: {fileID: 11500000, guid: 7ddcec8a8eb2d684d833ac8f5d26aebd, type: 3}
  m_Name: 
  m_EditorClassIdentifier: 
  active: 1
  maxShadowDistance:
    m_OverrideState: 1
    m_Value: 1700
    min: 0
  cascadeShadowSplitCount:
    m_OverrideState: 1
    m_Value: 4
    min: 1
    max: 4
  cascadeShadowSplit0:
    m_OverrideState: 1
    m_Value: 0.012
    min: 0
    max: 1
  cascadeShadowSplit1:
    m_OverrideState: 1
    m_Value: 0.04
    min: 0
    max: 1
  cascadeShadowSplit2:
    m_OverrideState: 1
    m_Value: 0.105
    min: 0
    max: 1
  cascadeShadowBorder0:
    m_OverrideState: 1
    m_Value: 0
    min: 0
  cascadeShadowBorder1:
    m_OverrideState: 1
    m_Value: 0
    min: 0
  cascadeShadowBorder2:
    m_OverrideState: 1
    m_Value: 0
    min: 0
  cascadeShadowBorder3:
    m_OverrideState: 1
    m_Value: 0
    min: 0
--- !u!114 &114836563956304504
MonoBehaviour:
  m_ObjectHideFlags: 3
  m_CorrespondingSourceObject: {fileID: 0}
  m_PrefabInstance: {fileID: 0}
  m_PrefabAsset: {fileID: 0}
  m_GameObject: {fileID: 0}
  m_Enabled: 1
  m_EditorHideFlags: 0
  m_Script: {fileID: 11500000, guid: 2150ee00179b2f4418ea8b21a7e98eea, type: 3}
  m_Name: 
  m_EditorClassIdentifier: 
  active: 1
  colorMode:
    m_OverrideState: 1
    m_Value: 1
  color:
    m_OverrideState: 1
    m_Value: {r: 0.5, g: 0.5, b: 0.5, a: 1}
    hdr: 0
    showAlpha: 1
    showEyeDropper: 1
  density:
    m_OverrideState: 1
    m_Value: 1
    min: 0
    max: 1
  maxFogDistance:
    m_OverrideState: 0
    m_Value: 5000
    min: 0
  mipFogMaxMip:
    m_OverrideState: 1
    m_Value: 0.5
    min: 0
    max: 1
  mipFogNear:
    m_OverrideState: 1
    m_Value: 0
    min: 0
  mipFogFar:
    m_OverrideState: 1
    m_Value: 1000
    min: 0
  fogDistance:
    m_OverrideState: 1
    m_Value: 200
    min: 0
  fogBaseHeight:
    m_OverrideState: 1
    m_Value: 0
  fogHeightAttenuation:
    m_OverrideState: 1
    m_Value: 0.005
    min: 0
    max: 1
--- !u!114 &114887199133453034
MonoBehaviour:
  m_ObjectHideFlags: 3
  m_CorrespondingSourceObject: {fileID: 0}
  m_PrefabInstance: {fileID: 0}
  m_PrefabAsset: {fileID: 0}
  m_GameObject: {fileID: 0}
  m_Enabled: 1
  m_EditorHideFlags: 0
  m_Script: {fileID: 11500000, guid: 59b6606ef2548734bb6d11b9d160bc7e, type: 3}
  m_Name: HDRISky
  m_EditorClassIdentifier: 
  active: 0
  rotation:
    m_OverrideState: 1
    m_Value: 34
    min: 0
    max: 360
  skyIntensityMode:
    m_OverrideState: 1
    m_Value: 1
  exposure:
    m_OverrideState: 1
    m_Value: 0
  multiplier:
    m_OverrideState: 1
    m_Value: 1
    min: 0
  upperHemisphereLuxValue:
    m_OverrideState: 1
    m_Value: 0.9318461
    min: 0
  desiredLuxValue:
    m_OverrideState: 1
    m_Value: 2
  updateMode:
    m_OverrideState: 1
    m_Value: 0
  updatePeriod:
    m_OverrideState: 1
    m_Value: 0
    min: 0
  includeSunInBaking:
    m_OverrideState: 1
    m_Value: 0
  hdriSky:
    m_OverrideState: 1
    m_Value: {fileID: 8900000, guid: 656a59a5ff93c46498416d97e5c16b66, type: 3}
--- !u!114 &114893122889947544
MonoBehaviour:
  m_ObjectHideFlags: 3
  m_CorrespondingSourceObject: {fileID: 0}
  m_PrefabInstance: {fileID: 0}
  m_PrefabAsset: {fileID: 0}
  m_GameObject: {fileID: 0}
  m_Enabled: 1
  m_EditorHideFlags: 0
  m_Script: {fileID: 11500000, guid: f034cba68ab55e046ae1445a42f18c0e, type: 3}
  m_Name: IndirectLightingController
  m_EditorClassIdentifier: 
  active: 0
  indirectSpecularIntensity:
    m_OverrideState: 1
    m_Value: 1
    min: 0
  indirectDiffuseIntensity:
    m_OverrideState: 1
    m_Value: 1
    min: 0
--- !u!114 &114957318768127008
MonoBehaviour:
  m_ObjectHideFlags: 3
  m_CorrespondingSourceObject: {fileID: 0}
  m_PrefabInstance: {fileID: 0}
  m_PrefabAsset: {fileID: 0}
  m_GameObject: {fileID: 0}
  m_Enabled: 1
  m_EditorHideFlags: 0
  m_Script: {fileID: 11500000, guid: 32b6af8f7ad32324cb6941c3290e5895, type: 3}
  m_Name: MicroShadowing
  m_EditorClassIdentifier: 
  active: 1
  enable:
    m_OverrideState: 1
    m_Value: 1
  opacity:
    m_OverrideState: 1
    m_Value: 0.209
    min: 0
    max: 1
