%YAML 1.1
%TAG !u! tag:unity3d.com,2011:
--- !u!21 &2100000
Material:
  serializedVersion: 6
  m_ObjectHideFlags: 0
  m_CorrespondingSourceObject: {fileID: 0}
  m_PrefabInstance: {fileID: 0}
  m_PrefabAsset: {fileID: 0}
  m_Name: Shader Graphs_Flesh_With_Blend
  m_Shader: {fileID: 4800000, guid: 772db361f8a0d584a8654efd5bda3fea, type: 3}
  m_ShaderKeywords: 
  m_LightmapFlags: 4
  m_EnableInstancingVariants: 0
  m_DoubleSidedGI: 0
  m_CustomRenderQueue: -1
  stringTagMap:
    MotionVector: User
  disabledShaderPasses:
  - MOTIONVECTORS
  m_SavedProperties:
    serializedVersion: 3
    m_TexEnvs:
    - _Triplanar_10F06D80_Texture:
        m_Texture: {fileID: 2800000, guid: 16874f79d0e463d45844477e0617a9c6, type: 3}
        m_Scale: {x: 1, y: 1}
        m_Offset: {x: 0, y: 0}
    - _Triplanar_5CA8AED1_Texture:
        m_Texture: {fileID: 2800000, guid: 455a4e98e2fd92b438783a1bb91c8470, type: 3}
        m_Scale: {x: 1, y: 1}
        m_Offset: {x: 0, y: 0}
    - _Triplanar_6CF824D9_Texture:
        m_Texture: {fileID: 2800000, guid: 84e26fb006dde28429fb8bd944635256, type: 3}
        m_Scale: {x: 1, y: 1}
        m_Offset: {x: 0, y: 0}
    - _Triplanar_A796AB0A_Texture:
        m_Texture: {fileID: 2800000, guid: 48f2bda4de26127478d8a97342e6fabe, type: 3}
        m_Scale: {x: 1, y: 1}
        m_Offset: {x: 0, y: 0}
    - _Triplanar_C0998490_Texture:
        m_Texture: {fileID: 2800000, guid: 4373297f236f38642b1afa4947063788, type: 3}
        m_Scale: {x: 1, y: 1}
        m_Offset: {x: 0, y: 0}
    - _Triplanar_D5097AF6_Texture:
        m_Texture: {fileID: 2800000, guid: 2062bb94282d275449ced6e658c701a9, type: 3}
        m_Scale: {x: 1, y: 1}
        m_Offset: {x: 0, y: 0}
    m_Floats:
    - Vector1_38E9C7F8: 142
    - Vector1_4A639E9D: 0.53
    m_Colors:
    - _EmissionColor: {r: 1, g: 1, b: 1, a: 1}
