%YAML 1.1
%TAG !u! tag:unity3d.com,2011:
--- !u!1045 &1
EditorBuildSettings:
  m_ObjectHideFlags: 0
  serializedVersion: 2
  m_Scenes:
  - enabled: 1
    path: Assets/Scenes/SCN_STARTScene.unity
    guid: cdc961c9dafc5bd4395e74338e6888ea
  - enabled: 1
    path: Assets/Scenes/SCN_Station.unity
    guid: 140deafc0e5e4e24faa398185c0b89e2
  - enabled: 1
    path: Assets/Scenes/SCN_Vagoes.unity
    guid: c93faf635eb91124aa46377cd72e5e31
  - enabled: 1
    path: Assets/Scenes/SCN_Noite.unity
    guid: 8416f3304707df449985c8046826faec
  - enabled: 1
    path: Assets/Scenes/SCN_GOODEND.unity
    guid: eb1280ca9dd1f5d4ea4216b8d6f8a5af
  - enabled: 1
    path: Assets/Scenes/SCN_BADEND.unity
    guid: 80a3bdba1e0d94d449d24de3f6032892
  - enabled: 1
    path: Assets/Scenes/Creditos.unity
    guid: 56b2b24502024664c87b28a650e0a742
  m_configObjects: {}
