%YAML 1.1
%TAG !u! tag:unity3d.com,2011:
--- !u!1 &62184556418302378
GameObject:
  m_ObjectHideFlags: 0
  m_CorrespondingSourceObject: {fileID: 0}
  m_PrefabInstance: {fileID: 0}
  m_PrefabAsset: {fileID: 0}
  serializedVersion: 6
  m_Component:
  - component: {fileID: 5356090375171441359}
  m_Layer: 0
  m_Name: PREFAB_CabineWall1m_Hole
  m_TagString: Untagged
  m_Icon: {fileID: 0}
  m_NavMeshLayer: 0
  m_StaticEditorFlags: 0
  m_IsActive: 1
--- !u!4 &5356090375171441359
Transform:
  m_ObjectHideFlags: 0
  m_CorrespondingSourceObject: {fileID: 0}
  m_PrefabInstance: {fileID: 0}
  m_PrefabAsset: {fileID: 0}
  m_GameObject: {fileID: 62184556418302378}
  m_LocalRotation: {x: 0, y: 0, z: 0, w: 1}
  m_LocalPosition: {x: 0, y: 0, z: 0}
  m_LocalScale: {x: 1, y: 1, z: 1}
  m_Children:
  - {fileID: 8011146879248999828}
  m_Father: {fileID: 0}
  m_RootOrder: 0
  m_LocalEulerAnglesHint: {x: 0, y: 0, z: 0}
--- !u!1001 &8011146879248875284
PrefabInstance:
  m_ObjectHideFlags: 0
  serializedVersion: 2
  m_Modification:
    m_TransformParent: {fileID: 5356090375171441359}
    m_Modifications:
    - target: {fileID: 100000, guid: aa80abda5b576a64c8d622e1fad6ef4e, type: 3}
      propertyPath: m_Name
      value: MOD_CabinWall_Hole
      objectReference: {fileID: 0}
    - target: {fileID: 400000, guid: aa80abda5b576a64c8d622e1fad6ef4e, type: 3}
      propertyPath: m_LocalPosition.x
      value: -0
      objectReference: {fileID: 0}
    - target: {fileID: 400000, guid: aa80abda5b576a64c8d622e1fad6ef4e, type: 3}
      propertyPath: m_LocalPosition.y
      value: 0
      objectReference: {fileID: 0}
    - target: {fileID: 400000, guid: aa80abda5b576a64c8d622e1fad6ef4e, type: 3}
      propertyPath: m_LocalPosition.z
      value: 0
      objectReference: {fileID: 0}
    - target: {fileID: 400000, guid: aa80abda5b576a64c8d622e1fad6ef4e, type: 3}
      propertyPath: m_LocalRotation.x
      value: 0
      objectReference: {fileID: 0}
    - target: {fileID: 400000, guid: aa80abda5b576a64c8d622e1fad6ef4e, type: 3}
      propertyPath: m_LocalRotation.y
      value: -0
      objectReference: {fileID: 0}
    - target: {fileID: 400000, guid: aa80abda5b576a64c8d622e1fad6ef4e, type: 3}
      propertyPath: m_LocalRotation.z
      value: -0
      objectReference: {fileID: 0}
    - target: {fileID: 400000, guid: aa80abda5b576a64c8d622e1fad6ef4e, type: 3}
      propertyPath: m_LocalRotation.w
      value: 1
      objectReference: {fileID: 0}
    - target: {fileID: 400000, guid: aa80abda5b576a64c8d622e1fad6ef4e, type: 3}
      propertyPath: m_RootOrder
      value: 0
      objectReference: {fileID: 0}
    - target: {fileID: 400000, guid: aa80abda5b576a64c8d622e1fad6ef4e, type: 3}
      propertyPath: m_LocalEulerAnglesHint.x
      value: 0
      objectReference: {fileID: 0}
    - target: {fileID: 400000, guid: aa80abda5b576a64c8d622e1fad6ef4e, type: 3}
      propertyPath: m_LocalEulerAnglesHint.y
      value: 0
      objectReference: {fileID: 0}
    - target: {fileID: 400000, guid: aa80abda5b576a64c8d622e1fad6ef4e, type: 3}
      propertyPath: m_LocalEulerAnglesHint.z
      value: 0
      objectReference: {fileID: 0}
    m_RemovedComponents: []
  m_SourcePrefab: {fileID: 100100000, guid: aa80abda5b576a64c8d622e1fad6ef4e, type: 3}
--- !u!4 &8011146879248999828 stripped
Transform:
  m_CorrespondingSourceObject: {fileID: 400000, guid: aa80abda5b576a64c8d622e1fad6ef4e,
    type: 3}
  m_PrefabInstance: {fileID: 8011146879248875284}
  m_PrefabAsset: {fileID: 0}
