%YAML 1.1
%TAG !u! tag:unity3d.com,2011:
--- !u!1 &8248371641744664017
GameObject:
  m_ObjectHideFlags: 0
  m_CorrespondingSourceObject: {fileID: 0}
  m_PrefabInstance: {fileID: 0}
  m_PrefabAsset: {fileID: 0}
  serializedVersion: 6
  m_Component:
  - component: {fileID: 8248371641744664014}
  - component: {fileID: 6837301308738693222}
  m_Layer: 0
  m_Name: Coffe_Table
  m_TagString: Untagged
  m_Icon: {fileID: 0}
  m_NavMeshLayer: 0
  m_StaticEditorFlags: 0
  m_IsActive: 1
--- !u!4 &8248371641744664014
Transform:
  m_ObjectHideFlags: 0
  m_CorrespondingSourceObject: {fileID: 0}
  m_PrefabInstance: {fileID: 0}
  m_PrefabAsset: {fileID: 0}
  m_GameObject: {fileID: 8248371641744664017}
  m_LocalRotation: {x: -0, y: -0, z: -0, w: 1}
  m_LocalPosition: {x: 49.935, y: 1.7470914, z: 116.17}
  m_LocalScale: {x: 1, y: 1, z: 1}
  m_Children:
  - {fileID: 8248371640690381461}
  m_Father: {fileID: 0}
  m_RootOrder: 0
  m_LocalEulerAnglesHint: {x: 0, y: 0, z: 0}
--- !u!136 &6837301308738693222
CapsuleCollider:
  m_ObjectHideFlags: 0
  m_CorrespondingSourceObject: {fileID: 0}
  m_PrefabInstance: {fileID: 0}
  m_PrefabAsset: {fileID: 0}
  m_GameObject: {fileID: 8248371641744664017}
  m_Material: {fileID: 0}
  m_IsTrigger: 0
  m_Enabled: 1
  m_Radius: 0.5
  m_Height: 1
  m_Direction: 1
  m_Center: {x: 0, y: 0.49, z: 0}
--- !u!1001 &8248371640690771989
PrefabInstance:
  m_ObjectHideFlags: 0
  serializedVersion: 2
  m_Modification:
    m_TransformParent: {fileID: 8248371641744664014}
    m_Modifications:
    - target: {fileID: 100000, guid: 5821b9347ef6d854e8f3cef6e0afde97, type: 3}
      propertyPath: m_Name
      value: MOD_CoffeTable
      objectReference: {fileID: 0}
    - target: {fileID: 100000, guid: 5821b9347ef6d854e8f3cef6e0afde97, type: 3}
      propertyPath: m_StaticEditorFlags
      value: 4294967295
      objectReference: {fileID: 0}
    - target: {fileID: 400000, guid: 5821b9347ef6d854e8f3cef6e0afde97, type: 3}
      propertyPath: m_LocalPosition.x
      value: 0
      objectReference: {fileID: 0}
    - target: {fileID: 400000, guid: 5821b9347ef6d854e8f3cef6e0afde97, type: 3}
      propertyPath: m_LocalPosition.y
      value: 0
      objectReference: {fileID: 0}
    - target: {fileID: 400000, guid: 5821b9347ef6d854e8f3cef6e0afde97, type: 3}
      propertyPath: m_LocalPosition.z
      value: 0
      objectReference: {fileID: 0}
    - target: {fileID: 400000, guid: 5821b9347ef6d854e8f3cef6e0afde97, type: 3}
      propertyPath: m_LocalRotation.x
      value: -0
      objectReference: {fileID: 0}
    - target: {fileID: 400000, guid: 5821b9347ef6d854e8f3cef6e0afde97, type: 3}
      propertyPath: m_LocalRotation.y
      value: -0
      objectReference: {fileID: 0}
    - target: {fileID: 400000, guid: 5821b9347ef6d854e8f3cef6e0afde97, type: 3}
      propertyPath: m_LocalRotation.z
      value: -0
      objectReference: {fileID: 0}
    - target: {fileID: 400000, guid: 5821b9347ef6d854e8f3cef6e0afde97, type: 3}
      propertyPath: m_LocalRotation.w
      value: 1
      objectReference: {fileID: 0}
    - target: {fileID: 400000, guid: 5821b9347ef6d854e8f3cef6e0afde97, type: 3}
      propertyPath: m_RootOrder
      value: 0
      objectReference: {fileID: 0}
    - target: {fileID: 400000, guid: 5821b9347ef6d854e8f3cef6e0afde97, type: 3}
      propertyPath: m_LocalEulerAnglesHint.x
      value: 0
      objectReference: {fileID: 0}
    - target: {fileID: 400000, guid: 5821b9347ef6d854e8f3cef6e0afde97, type: 3}
      propertyPath: m_LocalEulerAnglesHint.y
      value: 0
      objectReference: {fileID: 0}
    - target: {fileID: 400000, guid: 5821b9347ef6d854e8f3cef6e0afde97, type: 3}
      propertyPath: m_LocalEulerAnglesHint.z
      value: 0
      objectReference: {fileID: 0}
    m_RemovedComponents: []
  m_SourcePrefab: {fileID: 100100000, guid: 5821b9347ef6d854e8f3cef6e0afde97, type: 3}
--- !u!4 &8248371640690381461 stripped
Transform:
  m_CorrespondingSourceObject: {fileID: 400000, guid: 5821b9347ef6d854e8f3cef6e0afde97,
    type: 3}
  m_PrefabInstance: {fileID: 8248371640690771989}
  m_PrefabAsset: {fileID: 0}
